{
  "project_info": {
    "project_number": "179210969723",
    "firebase_url": "https://mobilnylistonosz-1576797189960.firebaseio.com",
    "project_id": "mobilnylistonosz-1576797189960",
    "storage_bucket": "mobilnylistonosz-1576797189960.appspot.com"
  },
  "client": [
    {
      "client_info": {
        "mobilesdk_app_id": "1:179210969723:android:82df7ae1e6dd5f3a59f8de",
        "android_client_info": {
          "package_name": "com.mobilnylistonosz"
        }
      },
      "oauth_client": [
        {
          "client_id": "179210969723-gtj02goomqi2slpvc63at2s73t46ljf5.apps.googleusercontent.com",
          "client_type": 1,
          "android_info": {
            "package_name": "com.mobilnylistonosz",
            "certificate_hash": "18fea1e5edb6ea4f26ae00092eecd59911a23cca"
          }
        },
        {
          "client_id": "179210969723-jt8mhnhcupr4oj8neg4ej5lij3umd14s.apps.googleusercontent.com",
          "client_type": 1,
          "android_info": {
            "package_name": "com.mobilnylistonosz",
            "certificate_hash": "06030c9f1a233ecbe36c3b0a5bb9759f9cf84960"
          }
        },
        {
          "client_id": "179210969723-lc360mfa2ehlutel2neif7qc228744tj.apps.googleusercontent.com",
          "client_type": 3
        }
      ],
      "api_key": [
        {
          "current_key": "AIzaSyAdnMy4g5vOf0JuR9wTJMedrmtPUNsRUB4"
        }
      ],
      "services": {
        "appinvite_service": {
          "other_platform_oauth_client": [
            {
              "client_id": "179210969723-lc360mfa2ehlutel2neif7qc228744tj.apps.googleusercontent.com",
              "client_type": 3
            }
          ]
        }
      }
    }
  ],
  "configuration_version": "1"
}